JTAG/dump.vcd
$date
	Sun Jun 18 11:21:49 2017
$end
$version
	Bluespec VCD dumper 2.1
$end
$timescale
	1 us
$end
$scope module main $end
$scope module top $end
$var reg 1 ! CLK $end
$var reg 1 " inverted$CLK_OUT $end
$var reg 1 ! CLK $end
$var reg 1 # CAN_FIRE_RL_rl_assign_op $end
$var reg 1 $ CAN_FIRE_RL_rl_bypass $end
$var reg 1 % CAN_FIRE_RL_rl_instruction $end
$var reg 1 & CAN_FIRE_RL_rl_latch_ir $end
$var reg 1 ' CAN_FIRE_RL_rl_print_state $end
$var reg 1 ( CAN_FIRE_RL_rl_process_instr $end
$var reg 1 ) CAN_FIRE_RL_rl_state_1 $end
$var reg 1 * CAN_FIRE_RL_rl_state_10 $end
$var reg 1 + CAN_FIRE_RL_rl_state_11 $end
$var reg 1 , CAN_FIRE_RL_rl_state_12 $end
$var reg 1 - CAN_FIRE_RL_rl_state_13 $end
$var reg 1 . CAN_FIRE_RL_rl_state_14 $end
$var reg 1 / CAN_FIRE_RL_rl_state_15 $end
$var reg 1 0 CAN_FIRE_RL_rl_state_16 $end
$var reg 1 1 CAN_FIRE_RL_rl_state_2 $end
$var reg 1 2 CAN_FIRE_RL_rl_state_3 $end
$var reg 1 3 CAN_FIRE_RL_rl_state_4 $end
$var reg 1 4 CAN_FIRE_RL_rl_state_5 $end
$var reg 1 5 CAN_FIRE_RL_rl_state_6 $end
$var reg 1 6 CAN_FIRE_RL_rl_state_7 $end
$var reg 1 7 CAN_FIRE_RL_rl_state_8 $end
$var reg 1 8 CAN_FIRE_RL_rl_state_9 $end
$var reg 1 9 CAN_FIRE_RL_rl_tp $end
$var reg 1 : CAN_FIRE___me_check_0 $end
$var reg 1 ; CAN_FIRE___me_check_1 $end
$var reg 1 < CAN_FIRE___me_check_10 $end
$var reg 1 = CAN_FIRE___me_check_11 $end
$var reg 1 > CAN_FIRE___me_check_12 $end
$var reg 1 ? CAN_FIRE___me_check_13 $end
$var reg 1 @ CAN_FIRE___me_check_14 $end
$var reg 1 A CAN_FIRE___me_check_2 $end
$var reg 1 B CAN_FIRE___me_check_3 $end
$var reg 1 C CAN_FIRE___me_check_4 $end
$var reg 1 D CAN_FIRE___me_check_5 $end
$var reg 1 E CAN_FIRE___me_check_6 $end
$var reg 1 F CAN_FIRE___me_check_7 $end
$var reg 1 G CAN_FIRE___me_check_8 $end
$var reg 1 H CAN_FIRE___me_check_9 $end
$var reg 1 I NOT_tms___d3 $end
$var reg 1 J RST_N $end
$var reg 1 K WILL_FIRE_RL_rl_assign_op $end
$var reg 1 L WILL_FIRE_RL_rl_bypass $end
$var reg 1 M WILL_FIRE_RL_rl_instruction $end
$var reg 1 N WILL_FIRE_RL_rl_latch_ir $end
$var reg 1 O WILL_FIRE_RL_rl_print_state $end
$var reg 1 P WILL_FIRE_RL_rl_process_instr $end
$var reg 1 Q WILL_FIRE_RL_rl_state_1 $end
$var reg 1 R WILL_FIRE_RL_rl_state_10 $end
$var reg 1 S WILL_FIRE_RL_rl_state_11 $end
$var reg 1 T WILL_FIRE_RL_rl_state_12 $end
$var reg 1 U WILL_FIRE_RL_rl_state_13 $end
$var reg 1 V WILL_FIRE_RL_rl_state_14 $end
$var reg 1 W WILL_FIRE_RL_rl_state_15 $end
$var reg 1 X WILL_FIRE_RL_rl_state_16 $end
$var reg 1 Y WILL_FIRE_RL_rl_state_2 $end
$var reg 1 Z WILL_FIRE_RL_rl_state_3 $end
$var reg 1 [ WILL_FIRE_RL_rl_state_4 $end
$var reg 1 \ WILL_FIRE_RL_rl_state_5 $end
$var reg 1 ] WILL_FIRE_RL_rl_state_6 $end
$var reg 1 ^ WILL_FIRE_RL_rl_state_7 $end
$var reg 1 _ WILL_FIRE_RL_rl_state_8 $end
$var reg 1 ` WILL_FIRE_RL_rl_state_9 $end
$var reg 1 a WILL_FIRE_RL_rl_tp $end
$var reg 1 b WILL_FIRE___me_check_0 $end
$var reg 1 c WILL_FIRE___me_check_1 $end
$var reg 1 d WILL_FIRE___me_check_10 $end
$var reg 1 e WILL_FIRE___me_check_11 $end
$var reg 1 f WILL_FIRE___me_check_12 $end
$var reg 1 g WILL_FIRE___me_check_13 $end
$var reg 1 h WILL_FIRE___me_check_14 $end
$var reg 1 i WILL_FIRE___me_check_2 $end
$var reg 1 j WILL_FIRE___me_check_3 $end
$var reg 1 k WILL_FIRE___me_check_4 $end
$var reg 1 l WILL_FIRE___me_check_5 $end
$var reg 1 m WILL_FIRE___me_check_6 $end
$var reg 1 n WILL_FIRE___me_check_7 $end
$var reg 1 o WILL_FIRE___me_check_8 $end
$var reg 1 p WILL_FIRE___me_check_9 $end
$var reg 1 q _read__h203 $end
$var reg 1 r capture_dr___d7 $end
$var reg 1 s capture_ir__h3447 $end
$var reg 1 t exit1_dr___d11 $end
$var reg 1 u exit1_ir___d12 $end
$var reg 1 v exit2_dr___d16 $end
$var reg 1 w exit2_ir___d15 $end
$var reg 4 x i__h3513 $end
$var reg 5 y latch_ir___d36 $end
$var reg 1 z pause_dr___d13 $end
$var reg 1 { pause_ir___d14 $end
$var reg 1 | run_test_idle___d4 $end
$var reg 1 } select_dr_scan___d5 $end
$var reg 1 ~ select_ir_scan___d6 $end
$var reg 1 "! shift_dr__h3465 $end
$var reg 1 "" shift_ir__h3372 $end
$var reg 5 "# temp___1__h3483 $end
$var reg 1 "$ test_logic_reset__h3484 $end
$var reg 1 "% tms__h3231 $end
$var reg 1 "& update_dr___d17 $end
$var reg 1 "' update_ir__h3482 $end
$var reg 1 "Q bypass $end
$var reg 1 "R bypass_select $end
$var reg 1 "S bypass_tdo $end
$var reg 1 "T capture_dr $end
$var reg 1 "U capture_ir $end
$var reg 4 "V count $end
$var reg 1 "W debug_op $end
$var reg 1 "X debug_select $end
$var reg 1 "Y exit1_dr $end
$var reg 1 "Z exit1_ir $end
$var reg 1 "[ exit2_dr $end
$var reg 1 "\ exit2_ir $end
$var reg 1 "] extest_select $end
$var reg 32 "^ idcode $end
$var reg 1 "_ idcode_select $end
$var reg 1 "` idcode_tdo $end
$var reg 1 "a instr_tdo $end
$var reg 5 "b instruction $end
$var reg 5 "c instruction2 $end
$var reg 5 "d instruction3 $end
$scope module inverted $end
$var reg 1 "e CLK_IN $end
$var reg 1 "f CLK_GATE_IN $end
$var reg 1 "g PREEDGE $end
$var reg 1 " CLK_OUT $end
$var reg 1 "h CLK_GATE_OUT $end
$upscope $end
$var reg 5 "i latch_ir $end
$var reg 5 "j latch_ir_neg $end
$var reg 1 "k pause_dr $end
$var reg 1 "l pause_ir $end
$var reg 1 "m run_test_idle $end
$var reg 1 "n sample_preload_select $end
$var reg 1 "o scan_chain_op $end
$var reg 1 "p select_dr_scan $end
$var reg 1 "q select_ir_scan $end
$var reg 1 "r shift_dr $end
$var reg 1 "s shift_ir $end
$var reg 1 "t shift_ir_neg $end
$var reg 1 "u tdi $end
$var reg 1 "v tdo $end
$var reg 1 "w tdo_enable $end
$var reg 1 "x test_logic_reset $end
$var reg 1 "y tms $end
$var reg 13 "z tms_vec $end
$var reg 1 "{ update_dr $end
$var reg 1 "| update_ir $end
$upscope $end
$upscope $end
$enddefinitions $end
1!
0"
1#
1$
1%
1&
1'
1(
0)
0*
0+
0,
0-
0.
0/
00
01
02
03
04
05
06
07
08
19
1:
1;
1<
1=
1>
1?
1@
1A
1B
1C
1D
1E
1F
1G
1H
0I
0J
1K
1L
1M
1N
1O
1P
0Q
0R
0S
0T
0U
0V
0W
0X
0Y
0Z
0[
0\
0]
0^
0_
0`
1a
1b
1c
1d
1e
1f
1g
1h
1i
1j
1k
1l
1m
1n
1o
1p
0q
0r
0s
0t
0u
0v
0w
b1010 x
b1010 y
0z
0{
0|
0}
0~
0"!
0""
b1010 "#
0"$
0"%
0"&
0"'
0"Q
0"R
0"S
0"T
0"U
b0 "V
0"W
0"X
0"Y
0"Z
0"[
0"\
0"]
b10101010101010101010101010101010 "^
0"_
0"`
0"a
b0 "b
b1010 "c
b1010 "d
1"e
1"f
1"g
1"h
b0 "i
b1010 "j
0"k
0"l
0"m
0"n
0"o
0"p
0"q
0"r
0"s
0"t
1"u
0"v
0"w
1"x
0"y
b110000000110 "z
0"{
0"|
1)
1I
1Q
1q
b0 x
b0 y
b0 "#
1"$
#5
0!
1"
1J
0"e
#10
0)
11
0Q
1Y
b1 x
b1010 y
1|
0"$
1!
0"
1"R
b1 "V
1"e
b1010 "i
1"m
0"x
#15
0!
1"
0"e
#20
b10 x
b0 y
1"%
1!
0"
b10 "V
1"e
b0 "i
1"y
#25
0!
1"
0"e
#30
01
12
0I
0Y
1Z
b11 x
0|
1}
1!
0"
b11 "V
1"e
0"m
1"p
#35
0!
1"
0"e
#40
02
13
1I
0Z
1[
b100 x
0}
1~
0"%
1!
0"
b100 "V
1"e
0"p
1"q
0"y
#45
0!
1"
0"e
#50
03
15
0[
1]
1s
b101 x
0~
1!
0"
1"U
b101 "V
1"e
0"q
#55
0!
1"
0"e
#60
05
17
0]
1_
0s
b110 x
1""
b10101 "#
1!
0"
0"U
b110 "V
b10101 "b
1"e
1"s
#65
0!
1"
0"e
#70
b111 x
b11010 "#
1!
0"
b111 "V
b11010 "b
1"e
#75
0!
1"
0"e
#80
b1000 x
b11101 "#
1!
0"
b1000 "V
b11101 "b
1"e
#85
0!
1"
0"e
#90
b1001 x
b11110 "#
1!
0"
b1001 "V
b11110 "b
1"e
#95
0!
1"
0"e
#100
b1010 x
b11111 "#
1!
0"
b1010 "V
b11111 "b
1"e
#105
0!
1"
0"e
#110
b1011 x
1"%
1!
0"
b1011 "V
1"e
1"y
#115
0!
1"
0"e
#120
1*
07
0I
1R
0_
1u
b1100 x
0""
1!
0"
b1100 "V
1"Z
1"e
0"s
#125
0!
1"
0"e
#130
0*
10
09
1I
0R
1X
0a
0u
b1101 x
b0 "#
0"%
1"'
1!
0"
b1101 "V
0"Z
b0 "b
1"e
0"y
1"|
#135
0!
1"
0"e
#140
00
11
0X
1Y
1|
0"'
1!
0"
1"e
1"m
0"|
