JTAG/ncverilog.log
ncsim> source /tools/Cadence/INCISIVE/15.20.001/tools/inca/files/ncsimrc
ncsim> run
1 0 0 0 0 0 0 0 0 0 0 0 0 0 0 0
 0 10 0             0          0
 0 0
0
0 1 0 0 0 0 0 0 0 0 0 0 0 0 0 0
 0 10 0             0          0
 0 0
0
0 0 1 0 0 0 0 0 0 0 0 0 0 0 0 0
 0 10 0             0          0
 0 1
0
0 0 0 1 0 0 0 0 0 0 0 0 0 0 0 0
 0 10 0             0          0
 0 1
0
0 0 0 0 0 1 0 0 0 0 0 0 0 0 0 0
 0 10 0             0          0
 0 0
0
0 0 0 0 0 0 0 1 0 0 0 0 0 0 0 0
21 10 0             0          0
 0 0
0
0 0 0 0 0 0 0 1 0 0 0 0 0 0 0 0
26 10 0             0          0
 1 0
0
0 0 0 0 0 0 0 1 0 0 0 0 0 0 0 0
13 10 0             0          0
 2 0
0
0 0 0 0 0 0 0 1 0 0 0 0 0 0 0 0
 6 10 0             0          0
 3 0
0
0 0 0 0 0 0 0 1 0 0 0 0 0 0 0 0
 3 10 0             0          0
 4 0
0
0 0 0 0 0 0 0 0 0 1 0 0 0 0 0 0
17 10 0             0          0
 5 1
0
0 0 0 0 0 0 0 0 0 0 0 0 0 0 0 1
17 10 0             0          0
 5 1
0
0 0 1 0 0 0 0 0 0 0 0 0 0 0 0 0
17 17 0             0          0
 5 1
0
0 0 0 0 1 0 0 0 0 0 0 0 0 0 0 0
17 17 0             0          0
 5 0
0
0 0 0 0 0 0 1 0 0 0 0 0 0 0 0 0
17 17 0  733007751850          0
 5 0
0
0 0 0 0 0 0 1 0 0 0 0 0 0 0 0 0
17 17 0  366503875925          0
 6 0
0
0 0 0 0 0 0 1 0 0 0 0 0 0 0 0 0
17 17 0 1282763565738          0
 7 0
0
0 0 0 0 0 0 1 0 0 0 0 0 0 0 0 0
17 17 0  641381782869          0
 8 0
1
0 0 0 0 0 0 1 0 0 0 0 0 0 0 0 0
17 17 0  320690891434          0
 9 0
0
0 0 0 0 0 0 0 0 1 0 0 0 0 0 0 0
17 17 0  160345445717          0
10 1
1
0 0 0 0 0 0 0 0 0 0 0 0 0 0 1 0
17 17 0  160345445717          0
10 1
1
0 1 0 0 0 0 0 0 0 0 0 0 0 0 0 0
17 17 0  160345445717          0
10 0
1
Simulation complete via $finish(1) at time 215 NS + 2
./verilog_dir/mkJtag.v:1113     if (RST_N != `BSV_RESET_VALUE) if (WILL_FIRE_RL_rl_stop) $finish(32'd1);
ncsim> exit
